Calculando Voltatilidade Ações
…
Visualizando o resultado

# Exibindo o tibble
params

## # A tibble: 86 × 8
##    Ticker    dias    omega     alpha1      beta1 Estac Vol_instant Vol_amostral
##    <chr>    <int>    <dbl>      <dbl>      <dbl> <lgl>       <dbl>        <dbl>
##  1 RRRP3.SA   743 6.78e- 5 0.0989     0.840      TRUE         40.4         51.3
##  2 ALOS3.SA    30 2.73e-10 0.00000001 0.990      TRUE         22.2         26.3
##  3 ALPA4.SA   743 9.10e- 4 0.130      0.00000001 TRUE         48.0         51.0
##  4 ABEV3.SA   743 6.60e- 5 0.0708     0.675      TRUE         28.7         25.5
##  5 ARZZ3.SA   743 2.07e- 5 0.0507     0.916      TRUE         38.3         38.5
##  6 ASAI3.SA   689 1.99e- 5 0.0732     0.892      TRUE         40.3         37.2
##  7 AZUL4.SA   743 4.51e- 5 0.0447     0.931      TRUE         58.6         66.6
##  8 B3SA3.SA   743 1.02e- 5 0.0275     0.956      TRUE         36.7         39.1
##  9 BBSE3.SA   743 2.17e-10 0.0151     0.984      TRUE         16.8         23.4
## 10 BBDC3.SA   743 1.13e- 5 0.0289     0.938      TRUE         26.2         29.2
## # ℹ 76 more rows
…
